Warning[205] G:\MICRO\DENEY_4_ADC\ADC.ASM 1 : Found directive in column 1. (__config)
Message[301] C:\PROGRAM FILES (X86)\MICROCHIP\MPASM SUITE\P16F877A.INC 37 : MESSAGE: (Processor-header file mismatch.  Verify selected processor.)
Warning[203] G:\MICRO\DENEY_4_ADC\ADC.ASM 3 : Found opcode in column 1. (goto)
Warning[205] G:\MICRO\DENEY_4_ADC\ADC.ASM 4 : Found directive in column 1. (ORG)
Message[302] G:\MICRO\DENEY_4_ADC\ADC.ASM 9 : Register in operand not in bank 0.  Ensure that bank bits are correct.
Message[302] G:\MICRO\DENEY_4_ADC\ADC.ASM 16 : Register in operand not in bank 0.  Ensure that bank bits are correct.
Message[302] G:\MICRO\DENEY_4_ADC\ADC.ASM 17 : Register in operand not in bank 0.  Ensure that bank bits are correct.
Message[302] G:\MICRO\DENEY_4_ADC\ADC.ASM 19 : Register in operand not in bank 0.  Ensure that bank bits are correct.
Message[302] G:\MICRO\DENEY_4_ADC\ADC.ASM 22 : Register in operand not in bank 0.  Ensure that bank bits are correct.
Message[302] G:\MICRO\DENEY_4_ADC\ADC.ASM 27 : Register in operand not in bank 0.  Ensure that bank bits are correct.
Warning[203] G:\MICRO\DENEY_4_ADC\ADC.ASM 36 : Found opcode in column 1. (goto)
Warning[205] G:\MICRO\DENEY_4_ADC\ADC.ASM 40 : Found directive in column 1. (END)
