Message[301] C:\PROGRAM FILES (X86)\MICROCHIP\MPASM SUITE\P16F877A.INC 37 : MESSAGE: (Processor-header file mismatch.  Verify selected processor.)
Warning[203] G:\MICRO\LED\ADC_LM35.ASM 3 : Found opcode in column 1. (goto)
Warning[205] G:\MICRO\LED\ADC_LM35.ASM 4 : Found directive in column 1. (ORG)
Message[302] G:\MICRO\LED\ADC_LM35.ASM 10 : Register in operand not in bank 0.  Ensure that bank bits are correct.
Message[302] G:\MICRO\LED\ADC_LM35.ASM 11 : Register in operand not in bank 0.  Ensure that bank bits are correct.
Message[302] G:\MICRO\LED\ADC_LM35.ASM 13 : Register in operand not in bank 0.  Ensure that bank bits are correct.
Warning[203] G:\MICRO\LED\ADC_LM35.ASM 19 : Found opcode in column 1. (goto)
Warning[205] G:\MICRO\LED\ADC_LM35.ASM 23 : Found directive in column 1. (END)
