:020000040000FA
:1000000083160313870186018312031301308700CF
:10001000210816208600A10A870D1C200530210228
:10002000031D0828A1010130870008288207003439
:100030000034003402343634FF30A200A20B1E28F4
:10004000FF30A200A20B2228FF30A200A20B26281C
:020050000800A6
:00000001FF
